…
          mutate(week=week(mdy(enddate))-3) %>%
          group_by(week) %>%
          select(!enddate) %>%
          select(!startdate) %>%
          mutate(net_approval= approve - disapprove)%>%
          select(!approve)%>%
          select(!disapprove)%>%
          select(!multiversions) %>%
          select(!tracking)%>%
          select(!adjusted_approve)%>%
          select(!adjusted_disapprove)%>%
          select(!timestamp)
approval_weeks

## # A tibble: 1,972 × 15
## # Groups:   week [40]
##    president   subgroup modeldate pollster    grade samplesize population weight
##    <chr>       <chr>    <chr>     <chr>       <chr>      <dbl> <chr>       <dbl>
##  1 Joseph R. … All pol… 10/21/20… Rasmussen … B           1500 lv         0.338 
##  2 Joseph R. … All pol… 10/21/20… Morning Co… B          15000 a          0.259 
##  3 Joseph R. … All pol… 10/21/20… Morning Co… B          15000 a          0.233 
##  4 Joseph R. … All pol… 10/21/20… Morning Co… B           1993 rv         0.0930
##  5 Joseph R. … All pol… 10/21/20… Ipsos       B-          1115 a          1.10  
##  6 Joseph R. … All pol… 10/21/20… YouGov      B+          1516 a          1.25  
##  7 Joseph R. … All pol… 10/21/20… Morning Co… B          15000 a          0.215 
##  8 Joseph R. … All pol… 10/21/20… RMG Resear… B-          1200 rv         0.881 
##  9 Joseph R. … All pol… 10/21/20… HarrisX     B+           941 rv         1.04  
## 10 Joseph R. … All pol… 10/21/20… Rasmussen … B           1500 lv         0.178 
## # … with 1,962 more rows, and 7 more variables: influence <dbl>, url <chr>,
## #   poll_id <dbl>, question_id <dbl>, createddate <chr>, week <dbl>,
## #   net_approval <dbl>
…
  group_by(week) %>% 

  summarise(count = n(),
            mean = mean(net_approval,na.rm=TRUE),
            SD = sd(net_approval,na.rm=TRUE),
            t_critical = qt(0.975, count-1),
            SE = SD/sqrt(count),
            margin_error= t_critical*SE,
            lower = (mean - margin_error),
            upper =(mean + margin_error))

formula_ci_approval

## # A tibble: 40 × 9
##     week count  mean    SD t_critical    SE margin_error lower upper
##    <dbl> <int> <dbl> <dbl>      <dbl> <dbl>        <dbl> <dbl> <dbl>
##  1     0    11  18.6  8.23       2.23  2.48         5.53  13.1  24.2
##  2     1    51  18.5  8.94       2.01  1.25         2.52  15.9  21.0
##  3     2    54  16.7  7.59       2.01  1.03         2.07  14.6  18.8
##  4     3    37  16.6  8.16       2.03  1.34         2.72  13.9  19.3
##  5     4    50  16.3  7.34       2.01  1.04         2.09  14.3  18.4
##  6     5    50  15.0  7.77       2.01  1.10         2.21  12.8  17.2
##  7     6    53  13.4  7.46       2.01  1.02         2.06  11.3  15.4
##  8     7    49  12.9  7.08       2.01  1.01         2.03  10.9  15.0
##  9     8    43  15.8  7.45       2.02  1.14         2.29  13.5  18.1
## 10     9    57  14.7  9.32       2.00  1.23         2.47  12.3  17.2
## # … with 30 more rows
…
